{
  "users": [
    {
      "name": "RABBITMQ_DEFAULT_USER",
      "password_hash": "RABBITMQ_DEFAULT_PASS",
      "hashing_algorithm": "rabbit_password_hashing_sha256",
      "tags": "administrator"
    }
  ],
  "vhosts": [
    {
      "name": "RABBITMQ_DEFAULT_VHOST"
    }
  ],
  "permissions": [
    {
      "user": "RABBITMQ_DEFAULT_USER",
      "vhost": "RABBITMQ_DEFAULT_VHOST",
      "configure": ".*",
      "write": ".*",
      "read": ".*"
    }
  ],
  "policies": [
    {
      "vhost": "RABBITMQ_DEFAULT_VHOST",
      "name": "ha",
      "pattern": "",
      "definition": {
        "ha-mode": "all",
        "ha-sync-mode": "automatic",
        "ha-sync-batch-size": 5
      }
    }
  ],
  "exchanges": [
    {
      "name": "notifications",
      "vhost": "RABBITMQ_DEFAULT_VHOST",
      "type": "direct",
      "durable": true,
      "auto_delete": false,
      "internal": false,
      "arguments": {}
    },
    {
      "name": "sites",
      "vhost": "RABBITMQ_DEFAULT_VHOST",
      "type": "direct",
      "durable": true,
      "auto_delete": false,
      "internal": false,
      "arguments": {}
    },
    {
      "name": "task",
      "vhost": "RABBITMQ_DEFAULT_VHOST",
      "type": "direct",
      "durable": true,
      "auto_delete": false,
      "internal": false,
      "arguments": {}
    }
  ],
  "queues": [
    {
      "name": "notifications",
      "vhost": "RABBITMQ_DEFAULT_VHOST",
      "durable": true,
      "auto_delete": false,
      "arguments": {
        "x-message-ttl": 3600000
      }
    },
    {
      "name": "new",
      "vhost": "RABBITMQ_DEFAULT_VHOST",
      "durable": true,
      "auto_delete": false,
      "arguments": {
        "x-message-ttl": 3600000
      }
    },
    {
      "name": "execute",
      "vhost": "RABBITMQ_DEFAULT_VHOST",
      "durable": true,
      "auto_delete": false,
      "arguments": {
        "x-message-ttl": 3600000
      }
    },
    {
      "name": "execute-high",
      "vhost": "RABBITMQ_DEFAULT_VHOST",
      "durable": true,
      "auto_delete": false,
      "arguments": {
        "x-message-ttl": 3600000
      }
    },
    {
      "name": "execute-low",
      "vhost": "RABBITMQ_DEFAULT_VHOST",
      "durable": true,
      "auto_delete": false,
      "arguments": {
        "x-message-ttl": 3600000
      }
    },
    {
      "name": "execute-medium",
      "vhost": "RABBITMQ_DEFAULT_VHOST",
      "durable": true,
      "auto_delete": false,
      "arguments": {
        "x-message-ttl": 3600000
      }
    }
  ],
  "bindings": [
    {
      "source": "notifications",
      "vhost": "RABBITMQ_DEFAULT_VHOST",
      "destination": "notifications",
      "destination_type": "queue",
      "routing_key": "",
      "arguments": {}
    },
    {
      "source": "sites",
      "vhost": "RABBITMQ_DEFAULT_VHOST",
      "destination": "new",
      "destination_type": "queue",
      "routing_key": "new",
      "arguments": {}
    },
    {
      "source": "task",
      "vhost": "RABBITMQ_DEFAULT_VHOST",
      "destination": "execute-high",
      "destination_type": "queue",
      "routing_key": "discover",
      "arguments": {}
    },
    {
      "source": "task",
      "vhost": "RABBITMQ_DEFAULT_VHOST",
      "destination": "execute-low",
      "destination_type": "queue",
      "routing_key": "potentially_slow",
      "arguments": {}
    },
    {
      "source": "task",
      "vhost": "RABBITMQ_DEFAULT_VHOST",
      "destination": "execute-medium",
      "destination_type": "queue",
      "routing_key": "pentest",
      "arguments": {}
    },
    {
      "source": "task",
      "vhost": "RABBITMQ_DEFAULT_VHOST",
      "destination": "execute",
      "destination_type": "queue",
      "routing_key": "add_host",
      "arguments": {}
    }
  ]
}